readosm.R
…
## [1] 3617

## no. of unique vertices
nrow(prim$vertex)

## [1] 3480

## no. of segments per way
prim$segment %>% group_by(path) %>% tally()

## # A tibble: 107 x 2
##         path     n
##        <chr> <int>
##  1 243649367    29
##  2 394940269    65
##  3 394940270     9
##  4 484154160    14
##  5 484154161    36
##  6 484154162    14
##  7 484154163     8
##  8 484154164    14
##  9 484154165     8
## 10 484154166    18
## # ... with 97 more rows

## no. of nodes per way
prim$path_link_vertex %>% group_by(path) %>% tally()

## # A tibble: 107 x 2
##         path     n
##        <chr> <int>
##  1 243649367    30
##  2 394940269    66
##  3 394940270    10
##  4 484154160    15
##  5 484154161    37
##  6 484154162    15
##  7 484154163     9
##  8 484154164    15
##  9 484154165     9
## 10 484154166    19
## # ... with 97 more rows
