Simple features zoo. — sfzoo • silicate
…
#> $polygon
#>    x_ y_
#> 1   0  0
#> 2   1  0
#> 3   3  2
#> 4   2  4
#> 5   1  4
#> 6   0  0
#> 7   1  1
#> 8   1  2
#> 9   2  2
#> 10  1  1
#> 
#> $multipolygon
#> # A tibble: 24 x 2
#>       x_    y_
#>    <dbl> <dbl>
#>  1     0     0
#>  2     1     0
#>  3     3     2
#>  4     2     4
#>  5     1     4
#>  6     0     0
#>  7     1     1
#>  8     1     2
#>  9     2     2
#> 10     1     1
#> # … with 14 more rows
…
